Tidymodels y machine learning en R
…
---

# Los datos

Imaginemos que queremos crear un modelo para predecir **especie** de pingüinos en
la Antártida en base a su morfología u otras variables disponibles.

```r
library(datos)
pinguinos
```

```
## # A tibble: 344 x 8
##    especie isla  largo_pico_mm alto_pico_mm largo_aleta_mm masa_corporal_g sexo 
##    <fct>   <fct>         <dbl>        <dbl>          <int>           <int> <fct>
##  1 Adelia  Torg…          39.1         18.7            181            3750 macho
##  2 Adelia  Torg…          39.5         17.4            186            3800 hemb…
##  3 Adelia  Torg…          40.3         18              195            3250 hemb…
##  4 Adelia  Torg…          NA           NA               NA              NA <NA> 
##  5 Adelia  Torg…          36.7         19.3            193            3450 hemb…
##  6 Adelia  Torg…          39.3         20.6            190            3650 macho
##  7 Adelia  Torg…          38.9         17.8            181            3625 hemb…
##  8 Adelia  Torg…          39.2         19.6            195            4675 macho
##  9 Adelia  Torg…          34.1         18.1            193            3475 <NA> 
## 10 Adelia  Torg…          42           20.2            190            4250 <NA> 
## # … with 334 more rows, and 1 more variable: anio <int>
```
…
---

# Prediciendo sobre los datos de test

```r
predict(object = rf_ajuste, 
        new_data = pinguinos_test)
```

```
## # A tibble: 83 x 1
##    .pred_class
##    <fct>      
##  1 Adelia     
##  2 Adelia     
##  3 Adelia     
##  4 Adelia     
##  5 Adelia     
##  6 Adelia     
##  7 Adelia     
##  8 Adelia     
##  9 Adelia     
## 10 Adelia     
## # … with 73 more rows
```

---

# Prediciendo sobre los datos de test

```r
(predict(object = rf_ajuste, 
        new_data = pinguinos_test) %>% 
  transmute(pred = .pred_class,
            real = pinguinos_test$especie) -> pinguinos_test_pred)
```

```
## # A tibble: 83 x 2
##    pred   real  
##    <fct>  <fct> 
##  1 Adelia Adelia
##  2 Adelia Adelia
##  3 Adelia Adelia
##  4 Adelia Adelia
##  5 Adelia Adelia
##  6 Adelia Adelia
##  7 Adelia Adelia
##  8 Adelia Adelia
##  9 Adelia Adelia
## 10 Adelia Adelia
## # … with 73 more rows
```
…
* Luego haremos la evaluación final del modelo sobre los datos de test.

---

# Entrenamiento y test

```r
set.seed(8723)
pinguinos_boot <- bootstraps(pinguinos_entren, strata = sexo)
pinguinos_boot
```

```
## # Bootstrap sampling using stratification 
## # A tibble: 25 x 2
##    splits           id         
##    <list>           <chr>      
##  1 <split [250/89]> Bootstrap01
##  2 <split [250/86]> Bootstrap02
##  3 <split [250/89]> Bootstrap03
##  4 <split [250/96]> Bootstrap04
##  5 <split [250/92]> Bootstrap05
##  6 <split [250/88]> Bootstrap06
##  7 <split [250/93]> Bootstrap07
##  8 <split [250/91]> Bootstrap08
##  9 <split [250/89]> Bootstrap09
## 10 <split [250/85]> Bootstrap10
## # … with 15 more rows
```
…
